verilog/12-03/tests/serial_interface_waveform.vcd
$date
	Tue Jan  7 01:08:03 2025
$end
$version
	Icarus Verilog
$end
$timescale
	1s
$end
$scope module testbench $end
$var wire 8 ! d7_d0_1 [7:0] $end
$var wire 8 " d7_d0_2 [7:0] $end
$var wire 1 # line_2 $end
$var wire 1 $ line_1 $end
$var reg 1 % a0_1 $end
$var reg 1 & a0_2 $end
$var reg 1 ' clock $end
$var reg 8 ( d7_d0_1_driver [7:0] $end
$var reg 8 ) d7_d0_2_driver [7:0] $end
$var reg 1 * ior_1_ $end
$var reg 1 + ior_2_ $end
$var reg 1 , iow_1_ $end
$var reg 1 - iow_2_ $end
$var reg 1 . reset_ $end
$var reg 1 / s_1_ $end
$var reg 1 0 s_2_ $end
$scope module serial_1 $end
$var wire 1 % a0 $end
$var wire 1 ' clock $end
$var wire 8 1 d7_d0 [7:0] $end
$var wire 1 * ior_ $end
$var wire 1 , iow_ $end
$var wire 1 . reset_ $end
$var wire 1 / s_ $end
$var wire 1 # txd $end
$var wire 1 $ rxd $end
$var wire 1 2 rfd_out $end
$var wire 1 3 rfd_in $end
$var wire 1 4 dav_out_ $end
$var wire 1 5 dav_in_ $end
$var wire 8 6 byte_out [7:0] $end
$var wire 8 7 byte_in [7:0] $end
$var reg 1 8 rec_clock $end
$var reg 1 9 tra_clock $end
$scope module parallel $end
$var wire 1 % a0 $end
$var wire 1 ' clock $end
$var wire 8 : d7_d0 [7:0] $end
$var wire 1 * ior_ $end
$var wire 1 , iow_ $end
$var wire 1 . reset_ $end
$var wire 1 / s_ $end
$var wire 1 2 rfd_out $end
$var wire 1 3 rfd_in $end
$var wire 1 4 dav_out_ $end
$var wire 1 5 dav_in_ $end
$var wire 8 ; byte_out [7:0] $end
$var wire 8 < byte_in [7:0] $end
$scope module hs_in $end
$var wire 1 % a0 $end
$var wire 1 ' clock $end
$var wire 8 = d7_d0 [7:0] $end
$var wire 1 * ior_ $end
$var wire 1 . reset_ $end
$var wire 1 / s_ $end
$var wire 1 3 rfd $end
$var wire 8 > rbr [7:0] $end
$var wire 1 ? fi $end
$var wire 1 @ e_s $end
$var wire 1 A e_b $end
$var wire 1 5 dav_ $end
$var wire 8 B byte_in [7:0] $end
$scope module comb $end
$var wire 1 % a0 $end
$var wire 1 * ior_ $end
$var wire 1 / s_ $end
$var wire 1 @ e_s $end
$var wire 1 A e_b $end
$upscope $end
$scope module seq $end
$var wire 1 ' clock $end
$var wire 1 A e_b $end
$var wire 1 ? fi $end
$var wire 8 C rbr [7:0] $end
$var wire 1 . reset_ $end
$var wire 1 3 rfd $end
$var wire 1 5 dav_ $end
$var wire 8 D byte_in [7:0] $end
$var parameter 2 E s0 $end
$var parameter 2 F s1 $end
$var parameter 2 G s2 $end
$var parameter 2 H s3 $end
$var reg 1 ? FI $end
$var reg 8 I RBR [7:0] $end
$var reg 1 J RFD $end
$var reg 2 K STAR [1:0] $end
$upscope $end
$upscope $end
$scope module hs_out $end
$var wire 1 % a0 $end
$var wire 1 ' clock $end
$var wire 8 L d7_d0 [7:0] $end
$var wire 1 * ior_ $end
$var wire 1 , iow_ $end
$var wire 1 . reset_ $end
$var wire 1 / s_ $end
$var wire 1 2 rfd $end
$var wire 1 M fo $end
$var wire 1 N e_s $end
$var wire 1 O e_b $end
$var wire 1 4 dav_ $end
$var wire 8 P byte_out [7:0] $end
$scope module comb $end
$var wire 1 % a0 $end
$var wire 1 * ior_ $end
$var wire 1 , iow_ $end
$var wire 1 / s_ $end
$var wire 1 N e_s $end
$var wire 1 O e_b $end
$upscope $end
$scope module seq $end
$var wire 8 Q byte_out [7:0] $end
$var wire 1 ' clock $end
$var wire 8 R d7_d0 [7:0] $end
$var wire 1 4 dav_ $end
$var wire 1 O e_b $end
$var wire 1 M fo $end
$var wire 1 . reset_ $end
$var wire 1 2 rfd $end
$var parameter 2 S s0 $end
$var parameter 2 T s1 $end
$var parameter 2 U s2 $end
$var parameter 2 V s3 $end
$var reg 1 W DAV $end
$var reg 1 M FO $end
$var reg 2 X STAR [1:0] $end
$var reg 8 Y TBR [7:0] $end
$upscope $end
$upscope $end
$upscope $end
$scope module receiver $end
$var wire 8 Z byte [7:0] $end
$var wire 1 8 clock $end
$var wire 1 5 dav_ $end
$var wire 1 . reset_ $end
$var wire 1 $ rxd $end
$var parameter 2 [ s0 $end
$var parameter 2 \ s1 $end
$var parameter 2 ] s2 $end
$var parameter 2 ^ s3 $end
$var parameter 1 _ start_bit $end
$var reg 8 ` BUFFER [7:0] $end
$var reg 4 a COUNT [3:0] $end
$var reg 1 b DAV $end
$var reg 2 c STAR [1:0] $end
$var reg 5 d WAIT [4:0] $end
$upscope $end
$scope module transmitter $end
$var wire 8 e byte [7:0] $end
$var wire 1 9 clock $end
$var wire 1 4 dav_ $end
$var wire 1 . reset_ $end
$var wire 1 2 rfd $end
$var wire 1 # txd $end
$var parameter 1 f mark $end
$var parameter 2 g s0 $end
$var parameter 2 h s1 $end
$var parameter 2 i s2 $end
$var parameter 1 j start_bit $end
$var parameter 1 k stop_bit $end
$var reg 10 l BUFFER [9:0] $end
$var reg 4 m COUNT [3:0] $end
$var reg 1 n RFD $end
$var reg 2 o STAR [1:0] $end
$var reg 1 p TXD $end
$upscope $end
$upscope $end
$scope module serial_2 $end
$var wire 1 & a0 $end
$var wire 1 ' clock $end
$var wire 8 q d7_d0 [7:0] $end
$var wire 1 + ior_ $end
$var wire 1 - iow_ $end
$var wire 1 . reset_ $end
$var wire 1 # rxd $end
$var wire 1 0 s_ $end
$var wire 1 $ txd $end
$var wire 1 r rfd_out $end
$var wire 1 s rfd_in $end
$var wire 1 t dav_out_ $end
$var wire 1 u dav_in_ $end
$var wire 8 v byte_out [7:0] $end
$var wire 8 w byte_in [7:0] $end
$var reg 1 x rec_clock $end
$var reg 1 y tra_clock $end
$scope module parallel $end
$var wire 1 & a0 $end
$var wire 1 ' clock $end
$var wire 8 z d7_d0 [7:0] $end
$var wire 1 + ior_ $end
$var wire 1 - iow_ $end
$var wire 1 . reset_ $end
$var wire 1 0 s_ $end
$var wire 1 r rfd_out $end
$var wire 1 s rfd_in $end
$var wire 1 t dav_out_ $end
$var wire 1 u dav_in_ $end
$var wire 8 { byte_out [7:0] $end
$var wire 8 | byte_in [7:0] $end
$scope module hs_in $end
$var wire 1 & a0 $end
$var wire 1 ' clock $end
$var wire 8 } d7_d0 [7:0] $end
$var wire 1 + ior_ $end
$var wire 1 . reset_ $end
$var wire 1 0 s_ $end
$var wire 1 s rfd $end
$var wire 8 ~ rbr [7:0] $end
$var wire 1 !" fi $end
$var wire 1 "" e_s $end
$var wire 1 #" e_b $end
$var wire 1 u dav_ $end
$var wire 8 $" byte_in [7:0] $end
$scope module comb $end
$var wire 1 & a0 $end
$var wire 1 + ior_ $end
$var wire 1 0 s_ $end
$var wire 1 "" e_s $end
$var wire 1 #" e_b $end
$upscope $end
$scope module seq $end
$var wire 1 ' clock $end
$var wire 1 #" e_b $end
$var wire 1 !" fi $end
$var wire 8 %" rbr [7:0] $end
$var wire 1 . reset_ $end
$var wire 1 s rfd $end
$var wire 1 u dav_ $end
$var wire 8 &" byte_in [7:0] $end
$var parameter 2 '" s0 $end
$var parameter 2 (" s1 $end
$var parameter 2 )" s2 $end
$var parameter 2 *" s3 $end
$var reg 1 !" FI $end
$var reg 8 +" RBR [7:0] $end
$var reg 1 ," RFD $end
$var reg 2 -" STAR [1:0] $end
$upscope $end
$upscope $end
$scope module hs_out $end
$var wire 1 & a0 $end
$var wire 1 ' clock $end
$var wire 8 ." d7_d0 [7:0] $end
$var wire 1 + ior_ $end
$var wire 1 - iow_ $end
$var wire 1 . reset_ $end
$var wire 1 0 s_ $end
$var wire 1 r rfd $end
$var wire 1 /" fo $end
$var wire 1 0" e_s $end
$var wire 1 1" e_b $end
$var wire 1 t dav_ $end
$var wire 8 2" byte_out [7:0] $end
$scope module comb $end
$var wire 1 & a0 $end
$var wire 1 + ior_ $end
$var wire 1 - iow_ $end
$var wire 1 0 s_ $end
$var wire 1 0" e_s $end
$var wire 1 1" e_b $end
$upscope $end
$scope module seq $end
$var wire 8 3" byte_out [7:0] $end
$var wire 1 ' clock $end
$var wire 8 4" d7_d0 [7:0] $end
$var wire 1 t dav_ $end
$var wire 1 1" e_b $end
$var wire 1 /" fo $end
$var wire 1 . reset_ $end
$var wire 1 r rfd $end
$var parameter 2 5" s0 $end
$var parameter 2 6" s1 $end
$var parameter 2 7" s2 $end
$var parameter 2 8" s3 $end
$var reg 1 9" DAV $end
$var reg 1 /" FO $end
$var reg 2 :" STAR [1:0] $end
$var reg 8 ;" TBR [7:0] $end
$upscope $end
$upscope $end
$upscope $end
$scope module receiver $end
$var wire 8 <" byte [7:0] $end
$var wire 1 x clock $end
$var wire 1 u dav_ $end
$var wire 1 . reset_ $end
$var wire 1 # rxd $end
$var parameter 2 =" s0 $end
$var parameter 2 >" s1 $end
$var parameter 2 ?" s2 $end
$var parameter 2 @" s3 $end
$var parameter 1 A" start_bit $end
$var reg 8 B" BUFFER [7:0] $end
$var reg 4 C" COUNT [3:0] $end
$var reg 1 D" DAV $end
$var reg 2 E" STAR [1:0] $end
$var reg 5 F" WAIT [4:0] $end
$upscope $end
$scope module transmitter $end
$var wire 8 G" byte [7:0] $end
$var wire 1 y clock $end
$var wire 1 t dav_ $end
$var wire 1 . reset_ $end
$var wire 1 r rfd $end
$var wire 1 $ txd $end
$var parameter 1 H" mark $end
$var parameter 2 I" s0 $end
$var parameter 2 J" s1 $end
$var parameter 2 K" s2 $end
$var parameter 1 L" start_bit $end
$var parameter 1 M" stop_bit $end
$var reg 10 N" BUFFER [9:0] $end
$var reg 4 O" COUNT [3:0] $end
$var reg 1 P" RFD $end
$var reg 2 Q" STAR [1:0] $end
$var reg 1 R" TXD $end
$upscope $end
$upscope $end
$upscope $end
$enddefinitions $end
$comment Show the parameter values. $end
$dumpall
1M"
0L"
b10 K"
b1 J"
b0 I"
1H"
0A"
b11 @"
b10 ?"
b1 >"
b0 ="
b11 8"
b10 7"
b1 6"
b0 5"
b11 *"
b10 )"
b1 ("
b0 '"
1k
0j
b10 i
b1 h
b0 g
1f
0_
b11 ^
b10 ]
b1 \
b0 [
b11 V
b10 U
b1 T
b0 S
b11 H
b10 G
b1 F
b0 E
$end
#0
$dumpvars
xR"
bx Q"
xP"
bx O"
bx N"
bx G"
bx F"
bx E"
xD"
bx C"
bx B"
bx <"
bx ;"
bx :"
x9"
bz 4"
bx 3"
bx 2"
01"
00"
x/"
bz ."
bx -"
x,"
bx +"
bx &"
bx %"
bx $"
0#"
0""
x!"
bx ~
bz }
bx |
bx {
bz z
0y
0x
bx w
bx v
xu
xt
xs
xr
bz q
xp
bx o
xn
bx m
bx l
bx e
bx d
bx c
xb
bx a
bx `
bx Z
bx Y
bx X
xW
bz R
bx Q
bx P
0O
0N
xM
bz L
bx K
xJ
bx I
bx D
bx C
bx B
0A
0@
x?
bx >
bz =
bx <
bx ;
bz :
09
08
bx 7
bx 6
x5
x4
x3
x2
bz 1
10
1/
0.
1-
1,
1+
1*
bz )
bz (
0'
1&
1%
x$
x#
bz "
bz !
$end
#1
b0 :"
1/"
1t
19"
b0 -"
0!"
1s
1,"
b0 X
1M
14
1W
b0 K
0?
13
1J
b0 c
15
1b
b0 o
12
1n
b0 E"
1u
1D"
b0 Q"
1r
1P"
1#
1p
1$
1R"
1x
18
#2
0x
08
#3
1x
18
#4
0x
08
#5
1x
18
#6
0x
08
#7
1x
18
#8
0x
08
#9
1x
18
#10
0x
08
#11
1x
18
#12
0x
08
#13
1x
18
#14
0x
08
#15
1x
18
#16
0x
08
1y
19
#17
1x
18
#18
0x
08
#19
1x
18
#20
0x
08
#21
1x
18
#22
0x
08
#23
1x
18
#24
0x
08
#25
1x
18
#26
0x
08
#27
1x
18
#28
0x
08
#29
1x
18
#30
0x
08
#31
1x
18
#32
0x
08
0y
09
#33
1x
18
#34
0x
08
#35
1x
18
#36
0x
08
#37
1x
18
#38
0x
08
#39
1x
18
#40
0x
08
#41
1x
18
#42
0x
08
#43
1x
18
#44
0x
08
#45
1x
18
#46
0x
08
#47
1x
18
#48
0x
08
1y
19
#49
1x
18
#50
0x
08
1.
1'
#51
b10111 F"
b1000 C"
b10111 d
b1000 a
1x
18
#52
0x
08
#53
bz 6
bz ;
bz P
bz Q
bz e
bz Y
bz v
bz {
bz 2"
bz 3"
bz G"
bz ;"
1x
18
#54
0x
08
#55
1x
18
#56
0x
08
#57
1x
18
#58
0x
08
#59
1x
18
#60
0x
08
#61
1x
18
#62
0x
08
#63
1x
18
#64
0x
08
0y
09
#65
1x
18
#66
0x
08
#67
1x
18
#68
0x
08
#69
1x
18
#70
0x
08
#71
1x
18
#72
0x
08
#73
1x
18
#74
0x
08
#75
1x
18
#76
0x
08
#77
1x
18
#78
0x
08
#79
1x
18
#80
0x
08
1y
19
#81
1x
18
#82
0x
08
#83
b1zzzzzzzz0 N"
b1010 O"
b1zzzzzzzz0 l
b1010 m
1x
18
#84
0x
08
#85
1x
18
#86
0x
08
#87
1x
18
#88
0x
08
#89
1x
18
#90
0x
08
#91
1x
18
#92
0x
08
#93
1x
18
#94
0x
08
#95
1x
18
#96
0x
08
0y
09
#97
1x
18
#98
0x
08
#99
1x
18
#100
0x
08
0'
#101
1x
18
#102
0x
08
#103
1x
18
#104
0x
08
#105
1x
18
#106
0x
08
#107
1x
18
#108
0x
08
#109
1x
18
#110
0x
08
#111
1x
18
#112
0x
08
1y
19
#113
1x
18
#114
0x
08
#115
1x
18
#116
0x
08
#117
1x
18
#118
0x
08
#119
1x
18
#120
0x
08
#121
1x
18
#122
0x
08
#123
1x
18
#124
0x
08
#125
1x
18
#126
0x
08
#127
1x
18
#128
0x
08
0y
09
#129
1x
18
#130
0x
08
#131
1x
18
#132
0x
08
#133
1x
18
#134
0x
08
#135
1x
18
#136
0x
08
#137
1x
18
#138
0x
08
#139
1x
18
#140
0x
08
#141
1x
18
#142
0x
08
#143
1x
18
#144
0x
08
1y
19
#145
1x
18
#146
0x
08
#147
1x
18
#148
0x
08
#149
1x
18
#150
b11110100 !
b11110100 1
b11110100 :
b11110100 =
b11110100 L
b11110100 R
b11110100 (
1O
0x
08
1'
0,
0/
#151
1x
18
#152
0x
08
#153
b1 X
b11110100 6
b11110100 ;
b11110100 P
b11110100 Q
b11110100 e
b11110100 Y
1x
18
#154
0x
08
#155
1x
18
#156
0x
08
#157
1x
18
#158
0x
08
#159
1x
18
#160
0x
08
0y
09
#161
1x
18
#162
0x
08
#163
1x
18
#164
0x
08
#165
1x
18
#166
0x
08
#167
1x
18
#168
0x
08
#169
1x
18
#170
0x
08
#171
1x
18
#172
0x
08
#173
1x
18
#174
0x
08
#175
1x
18
#176
0x
08
1y
19
#177
1x
18
#178
0x
08
#179
b1111101000 l
1x
18
